Library\Bee\artifacts\movedfrom\UnityEngine.UI.ref.dll_10443453564797511174.movedfrom
Library\Bee\artifacts\movedfrom\UnityEngine.AccessibilityModule.dll_16886926730001530004.movedfrom
Library\Bee\artifacts\movedfrom\UnityEngine.AIModule.dll_7179183597401829286.movedfrom
Library\Bee\artifacts\movedfrom\UnityEngine.AndroidJNIModule.dll_13138029216082888804.movedfrom
Library\Bee\artifacts\movedfrom\UnityEngine.AnimationModule.dll_4907620957587232314.movedfrom
Library\Bee\artifacts\movedfrom\UnityEngine.ARModule.dll_2095399186291740271.movedfrom
Library\Bee\artifacts\movedfrom\UnityEngine.AssetBundleModule.dll_13901117045233834152.movedfrom
Library\Bee\artifacts\movedfrom\UnityEngine.AudioModule.dll_5767809184568055980.movedfrom
Library\Bee\artifacts\movedfrom\UnityEngine.ClothModule.dll_13183088203504482192.movedfrom
Library\Bee\artifacts\movedfrom\UnityEngine.ClusterInputModule.dll_2332587984430443022.movedfrom
Library\Bee\artifacts\movedfrom\UnityEngine.ClusterRendererModule.dll_14182869148424392275.movedfrom
Library\Bee\artifacts\movedfrom\UnityEngine.CoreModule.dll_11636809098713713341.movedfrom
Library\Bee\artifacts\movedfrom\UnityEngine.CrashReportingModule.dll_17231607133980161653.movedfrom
Library\Bee\artifacts\movedfrom\UnityEngine.DirectorModule.dll_9371033202720497690.movedfrom
Library\Bee\artifacts\movedfrom\UnityEngine.dll_17420725021181051464.movedfrom
Library\Bee\artifacts\movedfrom\UnityEngine.DSPGraphModule.dll_9754227751542108475.movedfrom
Library\Bee\artifacts\movedfrom\UnityEngine.GameCenterModule.dll_16186203217738332501.movedfrom
Library\Bee\artifacts\movedfrom\UnityEngine.GIModule.dll_18148906712564848576.movedfrom
Library\Bee\artifacts\movedfrom\UnityEngine.GridModule.dll_9146630689178902708.movedfrom
Library\Bee\artifacts\movedfrom\UnityEngine.HotReloadModule.dll_14223525719164776892.movedfrom
Library\Bee\artifacts\movedfrom\UnityEngine.ImageConversionModule.dll_3514402040699913799.movedfrom
Library\Bee\artifacts\movedfrom\UnityEngine.IMGUIModule.dll_9829949837240151181.movedfrom
Library\Bee\artifacts\movedfrom\UnityEngine.InputLegacyModule.dll_5922175698629037721.movedfrom
Library\Bee\artifacts\movedfrom\UnityEngine.InputModule.dll_13150835909423414608.movedfrom
Library\Bee\artifacts\movedfrom\UnityEngine.JSONSerializeModule.dll_5364336499175562526.movedfrom
Library\Bee\artifacts\movedfrom\UnityEngine.LocalizationModule.dll_6821773369089596679.movedfrom
Library\Bee\artifacts\movedfrom\UnityEngine.ParticleSystemModule.dll_4770790507612406275.movedfrom
Library\Bee\artifacts\movedfrom\UnityEngine.PerformanceReportingModule.dll_11922228054468123772.movedfrom
Library\Bee\artifacts\movedfrom\UnityEngine.Physics2DModule.dll_10430705292399136207.movedfrom
Library\Bee\artifacts\movedfrom\UnityEngine.PhysicsModule.dll_4985870310093017341.movedfrom
Library\Bee\artifacts\movedfrom\UnityEngine.ProfilerModule.dll_12993679059650438951.movedfrom
Library\Bee\artifacts\movedfrom\UnityEngine.RuntimeInitializeOnLoadManagerInitializerModule.dll_17743899803144182936.movedfrom
Library\Bee\artifacts\movedfrom\UnityEngine.ScreenCaptureModule.dll_7230987856828811648.movedfrom
Library\Bee\artifacts\movedfrom\UnityEngine.SharedInternalsModule.dll_13030858614858940823.movedfrom
Library\Bee\artifacts\movedfrom\UnityEngine.SpriteMaskModule.dll_14541389417203076815.movedfrom
Library\Bee\artifacts\movedfrom\UnityEngine.SpriteShapeModule.dll_15729909836540580018.movedfrom
Library\Bee\artifacts\movedfrom\UnityEngine.StreamingModule.dll_17919907110154898808.movedfrom
Library\Bee\artifacts\movedfrom\UnityEngine.SubstanceModule.dll_15373988250835913606.movedfrom
Library\Bee\artifacts\movedfrom\UnityEngine.SubsystemsModule.dll_3781558052743509730.movedfrom
Library\Bee\artifacts\movedfrom\UnityEngine.TerrainModule.dll_6879206719411526123.movedfrom
Library\Bee\artifacts\movedfrom\UnityEngine.TerrainPhysicsModule.dll_4805316079386492048.movedfrom
Library\Bee\artifacts\movedfrom\UnityEngine.TextCoreModule.dll_1929630772589383722.movedfrom
Library\Bee\artifacts\movedfrom\UnityEngine.TextRenderingModule.dll_10203207526265735541.movedfrom
Library\Bee\artifacts\movedfrom\UnityEngine.TilemapModule.dll_18335352075681921780.movedfrom
Library\Bee\artifacts\movedfrom\UnityEngine.TLSModule.dll_8452312761607199377.movedfrom
Library\Bee\artifacts\movedfrom\UnityEngine.UIElementsModule.dll_4087346976809005785.movedfrom
Library\Bee\artifacts\movedfrom\UnityEngine.UIElementsNativeModule.dll_1427307263806921360.movedfrom
Library\Bee\artifacts\movedfrom\UnityEngine.UIModule.dll_6851439167192790354.movedfrom
Library\Bee\artifacts\movedfrom\UnityEngine.UmbraModule.dll_14618697573705237535.movedfrom
Library\Bee\artifacts\movedfrom\UnityEngine.UNETModule.dll_3757277668021387318.movedfrom
Library\Bee\artifacts\movedfrom\UnityEngine.UnityAnalyticsModule.dll_7049454455564162047.movedfrom
Library\Bee\artifacts\movedfrom\UnityEngine.UnityConnectModule.dll_10241769818857560051.movedfrom
Library\Bee\artifacts\movedfrom\UnityEngine.UnityCurlModule.dll_8590616786575280167.movedfrom
Library\Bee\artifacts\movedfrom\UnityEngine.UnityTestProtocolModule.dll_2655069585112100885.movedfrom
Library\Bee\artifacts\movedfrom\UnityEngine.UnityWebRequestAssetBundleModule.dll_17170939565610032656.movedfrom
Library\Bee\artifacts\movedfrom\UnityEngine.UnityWebRequestAudioModule.dll_2121361580606072596.movedfrom
Library\Bee\artifacts\movedfrom\UnityEngine.UnityWebRequestModule.dll_4784144087551320262.movedfrom
Library\Bee\artifacts\movedfrom\UnityEngine.UnityWebRequestTextureModule.dll_10999093486679664489.movedfrom
Library\Bee\artifacts\movedfrom\UnityEngine.UnityWebRequestWWWModule.dll_11832357983212665125.movedfrom
Library\Bee\artifacts\movedfrom\UnityEngine.VehiclesModule.dll_18000767364621512629.movedfrom
Library\Bee\artifacts\movedfrom\UnityEngine.VFXModule.dll_17738339845103059966.movedfrom
Library\Bee\artifacts\movedfrom\UnityEngine.VideoModule.dll_8436619032827540561.movedfrom
Library\Bee\artifacts\movedfrom\UnityEngine.VirtualTexturingModule.dll_4060985534086535963.movedfrom
Library\Bee\artifacts\movedfrom\UnityEngine.VRModule.dll_12819313978797980362.movedfrom
Library\Bee\artifacts\movedfrom\UnityEngine.WindModule.dll_1715057136944531750.movedfrom
Library\Bee\artifacts\movedfrom\UnityEngine.XRModule.dll_16475888350518986792.movedfrom