Library\Bee\artifacts\movedfrom\Unity.PlasticSCM.Editor.ref.dll_867559107357908773.movedfrom
Library\Bee\artifacts\movedfrom\Unity.Rider.Editor.ref.dll_9429735389166809616.movedfrom
Library\Bee\artifacts\movedfrom\Unity.TextMeshPro.Editor.ref.dll_7505652575554413639.movedfrom
Library\Bee\artifacts\movedfrom\Unity.TextMeshPro.ref.dll_12351856790969586186.movedfrom
Library\Bee\artifacts\movedfrom\Unity.Timeline.Editor.ref.dll_10207750595922483457.movedfrom
Library\Bee\artifacts\movedfrom\Unity.Timeline.ref.dll_17880587665647032752.movedfrom
Library\Bee\artifacts\movedfrom\Unity.VSCode.Editor.ref.dll_11274964828472420136.movedfrom
Library\Bee\artifacts\movedfrom\Unity.VisualStudio.Editor.ref.dll_637164831707220828.movedfrom
Library\Bee\artifacts\movedfrom\UnityEditor.UI.ref.dll_16330212486979997462.movedfrom
Library\Bee\artifacts\movedfrom\UnityEngine.UI.ref.dll_11458960751481943937.movedfrom
Library\Bee\artifacts\movedfrom\UnityEditor.CoreModule.dll_14658839963354885308.movedfrom
Library\Bee\artifacts\movedfrom\UnityEditor.DeviceSimulatorModule.dll_17645203557130576325.movedfrom
Library\Bee\artifacts\movedfrom\UnityEditor.dll_14242536511670394905.movedfrom
Library\Bee\artifacts\movedfrom\UnityEditor.GraphViewModule.dll_10179288888867447370.movedfrom
Library\Bee\artifacts\movedfrom\UnityEditor.PackageManagerUIModule.dll_5948586571396007704.movedfrom
Library\Bee\artifacts\movedfrom\UnityEditor.QuickSearchModule.dll_8782211481968039724.movedfrom
Library\Bee\artifacts\movedfrom\UnityEditor.SceneTemplateModule.dll_17036566184068313901.movedfrom
Library\Bee\artifacts\movedfrom\UnityEditor.UIBuilderModule.dll_16270597722581425022.movedfrom
Library\Bee\artifacts\movedfrom\UnityEditor.UIElementsModule.dll_7012383393425922680.movedfrom
Library\Bee\artifacts\movedfrom\UnityEditor.UIElementsSamplesModule.dll_11968507735242135157.movedfrom
Library\Bee\artifacts\movedfrom\UnityEditor.UIServiceModule.dll_1927214975877000088.movedfrom
Library\Bee\artifacts\movedfrom\UnityEditor.UnityConnectModule.dll_16520372776204269938.movedfrom
Library\Bee\artifacts\movedfrom\UnityEngine.AccessibilityModule.dll_2239263479704394442.movedfrom
Library\Bee\artifacts\movedfrom\UnityEngine.AIModule.dll_14730017874585516944.movedfrom
Library\Bee\artifacts\movedfrom\UnityEngine.AndroidJNIModule.dll_16112162434690550094.movedfrom
Library\Bee\artifacts\movedfrom\UnityEngine.AnimationModule.dll_6613981873777620720.movedfrom
Library\Bee\artifacts\movedfrom\UnityEngine.ARModule.dll_9646233463475427929.movedfrom
Library\Bee\artifacts\movedfrom\UnityEngine.AssetBundleModule.dll_13675709964402199582.movedfrom
Library\Bee\artifacts\movedfrom\UnityEngine.AudioModule.dll_7705100845985913826.movedfrom
Library\Bee\artifacts\movedfrom\UnityEngine.ClothModule.dll_15120379864922340038.movedfrom
Library\Bee\artifacts\movedfrom\UnityEngine.ClusterInputModule.dll_7268981977711660088.movedfrom
Library\Bee\artifacts\movedfrom\UnityEngine.ClusterRendererModule.dll_18054119015776071497.movedfrom
Library\Bee\artifacts\movedfrom\UnityEngine.CoreModule.dll_17190095305896810471.movedfrom
Library\Bee\artifacts\movedfrom\UnityEngine.CrashReportingModule.dll_652387083956380127.movedfrom
Library\Bee\artifacts\movedfrom\UnityEngine.DirectorModule.dll_5057736769064560580.movedfrom
Library\Bee\artifacts\movedfrom\UnityEngine.dll_17891656004858850558.movedfrom
Library\Bee\artifacts\movedfrom\UnityEngine.DSPGraphModule.dll_5440931317886171365.movedfrom
Library\Bee\artifacts\movedfrom\UnityEngine.GameCenterModule.dll_713592362636442175.movedfrom
Library\Bee\artifacts\movedfrom\UnityEngine.GIModule.dll_7252996916038984618.movedfrom
Library\Bee\artifacts\movedfrom\UnityEngine.GridModule.dll_14699916896361999838.movedfrom
Library\Bee\artifacts\movedfrom\UnityEngine.HotReloadModule.dll_15929886635355165298.movedfrom
Library\Bee\artifacts\movedfrom\UnityEngine.ImageConversionModule.dll_7385651908051593021.movedfrom
Library\Bee\artifacts\movedfrom\UnityEngine.IMGUIModule.dll_11767241498658009027.movedfrom
Library\Bee\artifacts\movedfrom\UnityEngine.InputLegacyModule.dll_5696768617797403151.movedfrom
Library\Bee\artifacts\movedfrom\UnityEngine.InputModule.dll_15088127570841272454.movedfrom
Library\Bee\artifacts\movedfrom\UnityEngine.JSONSerializeModule.dll_9163417322587978580.movedfrom
Library\Bee\artifacts\movedfrom\UnityEngine.LocalizationModule.dll_11758167362370813745.movedfrom
Library\Bee\artifacts\movedfrom\UnityEngine.ParticleSystemModule.dll_6638314531298176365.movedfrom
Library\Bee\artifacts\movedfrom\UnityEngine.PerformanceReportingModule.dll_11228567595422716838.movedfrom
Library\Bee\artifacts\movedfrom\UnityEngine.Physics2DModule.dll_12137066208589524613.movedfrom
Library\Bee\artifacts\movedfrom\UnityEngine.PhysicsModule.dll_17115576271550297843.movedfrom
Library\Bee\artifacts\movedfrom\UnityEngine.ProfilerModule.dll_8680382625994501841.movedfrom
Library\Bee\artifacts\movedfrom\UnityEngine.RuntimeInitializeOnLoadManagerInitializerModule.dll_16692009461906549070.movedfrom
Library\Bee\artifacts\movedfrom\UnityEngine.ScreenCaptureModule.dll_11030068680241227702.movedfrom
Library\Bee\artifacts\movedfrom\UnityEngine.SharedInternalsModule.dll_16902108482210620045.movedfrom
Library\Bee\artifacts\movedfrom\UnityEngine.SpriteMaskModule.dll_17515522635810738105.movedfrom
Library\Bee\artifacts\movedfrom\UnityEngine.SpriteShapeModule.dll_15504502755708945448.movedfrom
Library\Bee\artifacts\movedfrom\UnityEngine.StreamingModule.dll_1179523952635735598.movedfrom
Library\Bee\artifacts\movedfrom\UnityEngine.SubstanceModule.dll_17080349167026302012.movedfrom
Library\Bee\artifacts\movedfrom\UnityEngine.SubsystemsModule.dll_6755691271351171020.movedfrom
Library\Bee\artifacts\movedfrom\UnityEngine.TerrainModule.dll_562168607159255009.movedfrom
Library\Bee\artifacts\movedfrom\UnityEngine.TerrainPhysicsModule.dll_6672840103072262138.movedfrom
Library\Bee\artifacts\movedfrom\UnityEngine.TextCoreModule.dll_16063078412642998228.movedfrom
Library\Bee\artifacts\movedfrom\UnityEngine.TextRenderingModule.dll_14002288349678151595.movedfrom
Library\Bee\artifacts\movedfrom\UnityEngine.TilemapModule.dll_12018313963429650666.movedfrom
Library\Bee\artifacts\movedfrom\UnityEngine.TLSModule.dll_9044335260670563079.movedfrom
Library\Bee\artifacts\movedfrom\UnityEngine.UIElementsModule.dll_7061480195416667075.movedfrom
Library\Bee\artifacts\movedfrom\UnityEngine.UIElementsNativeModule.dll_11315105556331509562.movedfrom
Library\Bee\artifacts\movedfrom\UnityEngine.UIModule.dll_14402273444376478012.movedfrom
Library\Bee\artifacts\movedfrom\UnityEngine.UmbraModule.dll_16555989235123095381.movedfrom
Library\Bee\artifacts\movedfrom\UnityEngine.UNETModule.dll_9310563875204484448.movedfrom
Library\Bee\artifacts\movedfrom\UnityEngine.UnityAnalyticsModule.dll_8916978479249932137.movedfrom
Library\Bee\artifacts\movedfrom\UnityEngine.UnityConnectModule.dll_15178163812138777117.movedfrom
Library\Bee\artifacts\movedfrom\UnityEngine.UnityCurlModule.dll_10296977702765668573.movedfrom
Library\Bee\artifacts\movedfrom\UnityEngine.UnityTestProtocolModule.dll_7051339944603331531.movedfrom
Library\Bee\artifacts\movedfrom\UnityEngine.UnityWebRequestAssetBundleModule.dll_8662138872437065978.movedfrom
Library\Bee\artifacts\movedfrom\UnityEngine.UnityWebRequestAudioModule.dll_1427701121560665662.movedfrom
Library\Bee\artifacts\movedfrom\UnityEngine.UnityWebRequestModule.dll_8655393954902999484.movedfrom
Library\Bee\artifacts\movedfrom\UnityEngine.UnityWebRequestTextureModule.dll_6054964698019973075.movedfrom
Library\Bee\artifacts\movedfrom\UnityEngine.UnityWebRequestWWWModule.dll_14118715123545206543.movedfrom
Library\Bee\artifacts\movedfrom\UnityEngine.VehiclesModule.dll_13687470930965575519.movedfrom
Library\Bee\artifacts\movedfrom\UnityEngine.VFXModule.dll_18330362344166423668.movedfrom
Library\Bee\artifacts\movedfrom\UnityEngine.VideoModule.dll_10373910694245398407.movedfrom
Library\Bee\artifacts\movedfrom\UnityEngine.VirtualTexturingModule.dll_13948783826611124165.movedfrom
Library\Bee\artifacts\movedfrom\UnityEngine.VRModule.dll_1923404182272116404.movedfrom
Library\Bee\artifacts\movedfrom\UnityEngine.WindModule.dll_7268343344127628880.movedfrom
Library\Bee\artifacts\movedfrom\UnityEngine.XRModule.dll_5579978553993122834.movedfrom